{
  "count": 241,
  "next_link": "https://api.sky.blackbaud.com/constituent/v1/constituents?limit=3&last_modified=2016-05-05T17%3a59%3a31.1600745-04%3a00&sort_token=AAAAAAAC%2bI4%3d",
  "value": [
    {
      "id": "187",
      "address": {
        "id": "279",
        "address_lines": "125 Smokerise Way",
        "city": "Charleston",
        "constituent_id": "187",
        "country": "United States",
        "county": "Charleston",
        "formatted_address": "125 Smokerise Way\r\nCharleston, SC  29401",
        "inactive": false,
        "postal_code": "29401",
        "preferred": true,
        "state": "SC"
      },
      "age": 61,
      "birthdate": {
        "d": 23,
        "m": 9,
        "y": 1954
      },
      "date_added": "2008-05-19T14:45:09.04+00:00",
      "date_modified": "2016-06-21T02:47:20.2371396+00:00",
      "deceased": false,
      "email": {
        "id": "973",
        "address": "madamson@sncn.net",
        "constituent_id": "187",
        "do_not_email": false,
        "inactive": false,
        "primary": false,
        "type": "Email"
      },
      "first": "Mark",
      "fundraiser_status": "Active",
      "gender": "Male",
      "gives_anonymously": true,
      "inactive": false,
      "last": "Adamson",
      "lookup_id": "3",
      "middle": "Daniel",
      "name": "Mr. Mark D. Adamson, III",
      "phone": {
        "id": "4",
        "constituent_id": "187",
        "do_not_call": false,
        "inactive": false,
        "number": "843-798-6698",
        "primary": false,
        "type": "Home"
      },
      "suffix": ", III",
      "title": "Mr.",
      "type": "Individual"
    },
    {
      "id": "280",
      "address": {
        "id": "687",
        "address_lines": "410 17th Street",
        "city": "Denver",
        "constituent_id": "280",
        "country": "United States",
        "county": "Denver",
        "formatted_address": "410 17th Street\r\nDenver, CO  80202-4402",
        "inactive": false,
        "postal_code": "80202-4402",
        "preferred": true,
        "state": "CO"
      },
      "age": 54,
      "birthdate": {
        "d": 14,
        "m": 3,
        "y": 1961
      },
      "date_added": "2000-04-26T15:26:45.977+00:00",
      "date_modified": "2016-06-21T02:47:20.2371396+00:00",
      "deceased": false,
      "email": {
        "id": "283",
        "address": "robertcarloshernandez@gmail.com",
        "constituent_id": "280",
        "do_not_email": false,
        "inactive": false,
        "primary": false,
        "type": "Email"
      },
      "first": "Robert",
      "fundraiser_status": "Active",
      "gender": "Male",
      "inactive": false,
      "last": "Hernandez",
      "lookup_id": "96",
      "middle": "Carlos",
      "name": "Dr. Robert C. Hernandez",
      "online_presence": {
        "id": "811",
        "address": "http://www.myspace.com/drbobhernandez",
        "constituent_id": "280",
        "inactive": false,
        "primary": false,
        "type": "Web address"
      },
      "phone": {
        "id": "95",
        "constituent_id": "280",
        "do_not_call": false,
        "inactive": false,
        "number": "(303)-997-3301",
        "primary": false,
        "type": "Home"
      },
      "preferred_name": "Bob",
      "spouse": {
        "id": "410",
        "first": "Wendy",
        "last": "Hernandez"
      },
      "title": "Dr.",
      "type": "Individual"
    },
    {
      "id": "410",
      "address": {
        "id": "687",
        "address_lines": "410 17th Street",
        "city": "Denver",
        "country": "United States",
        "county": "Denver",
        "formatted_address": "410 17th Street\r\nDenver, CO  80202-4402",
        "inactive": false,
        "postal_code": "80202-4402",
        "preferred": true,
        "state": "CO"
      },
      "age": 53,
      "birthdate": {
        "d": 11,
        "m": 12,
        "y": 1962
      },
      "date_added": "2000-04-26T16:00:04.51+00:00",
      "date_modified": "2016-06-21T02:47:20.2371396+00:00",
      "deceased": false,
      "email": {
        "id": "1196",
        "address": "wendycorizonhernandez@gmail.com",
        "do_not_email": false,
        "inactive": false,
        "primary": false,
        "type": "Email"
      },
      "first": "Wendy",
      "fundraiser_status": "None",
      "gender": "Female",
      "inactive": false,
      "last": "Hernandez",
      "phone": {
        "id": "1510",
        "do_not_call": false,
        "inactive": false,
        "number": "(303)-997-3301",
        "primary": false,
        "type": "Home"
      },
      "spouse": {
        "id": "280",
        "first": "Robert",
        "last": "Hernandez"
      },
      "title": "Mrs.",
      "type": "Individual"
    }
  ]
}